<?xml version="1.0" encoding="iso-8859-1"?>
<!-- Generator: Adobe Illustrator 19.0.0, SVG Export Plug-In . SVG Version: 6.00 Build 0)  -->
<svg xmlns="http://www.w3.org/2000/svg" xmlns:xlink="http://www.w3.org/1999/xlink" version="1.1" id="Capa_1" x="0px" y="0px" viewBox="0 0 489.3 489.3" style="enable-background:new 0 0 489.3 489.3;" xml:space="preserve" width="512px" height="512px">
<g>
	<g>
		<path d="M388.05,0h-286.8c-2.7,0-5.1,2.3-5.1,5.1v479.1c0,2.7,2.3,5.1,5.1,5.1h286.8c2.7,0,5.1-2.3,5.1-5.1V5    C393.05,2.3,390.75,0,388.05,0z M244.65,472.1c-15.9,0-28.8-12.8-28.8-28.8s12.9-28.7,28.8-28.7s28.8,12.8,28.8,28.8    S260.55,472.1,244.65,472.1z M371.75,383.5c0,5.4-4.3,9.7-9.7,9.7h-234.8c-5.4,0-9.7-4.3-9.7-9.7V40.4c0-5.4,4.3-9.7,9.7-9.7    h234.4c5.4,0,9.7,4.3,9.7,9.7v343.1H371.75z" fill="#43406a"/>
		<path d="M137.05,50.1v191.6l19.4-3.9l5.4,26c0.8,0,15.3-0.9,32.6,6.2l14.4-22.1l24.5,15.9l-14.4,22.1c7.8,7.4,14.4,16.7,18.7,27.2    l26-5.4l5.8,28.4l-26,5.4c0.4,11.3-1.9,22.1-5.8,31.9h114.6V50.1H137.05z M205.75,148.4c1.2,0.4,1.9,1.9,1.9,3.1v9.3    c0,2.4-2.5,4-4.6,3l-39.3-18.1c-1.2-0.4-1.9-1.9-1.9-3.1v-10.5c0-1.2,0.8-2.7,1.9-3.1l39.3-18.1c2.1-1,4.6,0.6,4.6,2.9v10.1    c0,1.2-0.8,2.7-1.9,3.1l-23.3,10.5L205.75,148.4z M269.85,105.1l-35.3,75.6h-14.8c-0.3-0.5-0.3-0.5-0.6-1l36.4-77.5    c0.4-1.2,1.9-1.9,3.1-1.9h8.1C269.25,100.2,270.85,102.8,269.85,105.1z M326.65,142.6c0,1.2-0.8,2.7-1.9,3.1l-39.3,18.1    c-2.2,1-4.6-0.6-4.6-3v-9.3c0-1.2,0.8-2.7,1.9-3.1l23.3-10.9l-23.3-10.5c-1.2-0.4-1.9-1.9-1.9-3.1v-9.3c0-2.4,2.5-4,4.7-3    l39.3,18.1c1.2,0.4,1.9,1.9,1.9,3.1v9.8H326.65z" fill="#43406a"/>
		<g>
			<path d="M196.75,310.4c-16.3-16.3-41.6-17.9-59.7-5v68.3h61.7C214.75,355.6,214.15,327.8,196.75,310.4z" fill="#43406a"/>
		</g>
	</g>
</g>
<g>
</g>
<g>
</g>
<g>
</g>
<g>
</g>
<g>
</g>
<g>
</g>
<g>
</g>
<g>
</g>
<g>
</g>
<g>
</g>
<g>
</g>
<g>
</g>
<g>
</g>
<g>
</g>
<g>
</g>
</svg>
