<?xml version="1.0" encoding="utf-8"?>
<!-- Generator: Adobe Illustrator 16.0.0, SVG Export Plug-In . SVG Version: 6.00 Build 0)  -->
<!DOCTYPE svg PUBLIC "-//W3C//DTD SVG 1.1//EN" "http://www.w3.org/Graphics/SVG/1.1/DTD/svg11.dtd">
<svg version="1.1" id="Capa_1" xmlns="http://www.w3.org/2000/svg" xmlns:xlink="http://www.w3.org/1999/xlink" x="0px" y="0px"
	 width="512px" height="512px" viewBox="0 0 512 512" enable-background="new 0 0 512 512" xml:space="preserve">
<path fill="#F27393" d="M344.774,81.41c-6.975-7.219-18.584-7.219-25.803,0c-6.976,6.975-6.976,18.584,0,25.543L449.809,237.79
	H18.064C8,237.806,0,245.806,0,255.87s8,18.323,18.064,18.323h431.745L318.972,404.787c-6.976,7.22-6.976,18.845,0,25.804
	c7.219,7.219,18.845,7.219,25.803,0l161.812-161.812c7.219-6.975,7.219-18.584,0-25.542L344.774,81.41z"/>
</svg>
