<?xml version="1.0" encoding="utf-8"?>
<!-- Generator: Adobe Illustrator 16.0.0, SVG Export Plug-In . SVG Version: 6.00 Build 0)  -->
<!DOCTYPE svg PUBLIC "-//W3C//DTD SVG 1.1//EN" "http://www.w3.org/Graphics/SVG/1.1/DTD/svg11.dtd">
<svg version="1.1" id="Layer_1" xmlns="http://www.w3.org/2000/svg" xmlns:xlink="http://www.w3.org/1999/xlink" x="0px" y="0px"
	 width="200px" height="200px" viewBox="0 0 200 200" enable-background="new 0 0 200 200" xml:space="preserve">
<g>
	
		<path fill="#3C439B" stroke="#171533" stroke-width="3" stroke-linecap="round" stroke-linejoin="round" stroke-miterlimit="10" d="
		M44.715,77.396L46.28,95.74c0.173,2.027-1.33,3.81-3.356,3.983c-2.026,0.172-3.809-1.329-3.981-3.357l-1.565-18.344l-4.891,0.417
		l2.259,26.497l17.12-1.459L49.609,76.98L44.715,77.396z"/>
	
		<path fill="#3C439B" stroke="#171533" stroke-width="3" stroke-linecap="round" stroke-linejoin="round" stroke-miterlimit="10" d="
		M49.973,103.637l-13.335,1.137c-3.183,0.273-5.546,3.073-5.273,6.258c0.271,3.187,3.072,5.546,6.257,5.274l13.334-1.136
		c3.185-0.271,5.546-3.072,5.275-6.258C55.958,105.728,53.157,103.367,49.973,103.637z"/>
	
		<path fill="#F05177" stroke="#171533" stroke-width="3" stroke-linecap="round" stroke-linejoin="round" stroke-miterlimit="10" d="
		M33.663,123.653H33.66l3.54,10.841l0.002-0.001c0.465,1.899,2.251,3.231,4.26,3.06l9.306-0.791c2.007-0.174,3.542-1.788,3.68-3.737
		l0.001-0.001l1.652-11.282l0,0c0.122-0.532,0.167-1.089,0.119-1.659c-0.25-2.938-2.837-5.119-5.777-4.868l-12.308,1.05
		c-2.94,0.249-5.121,2.834-4.871,5.773C33.313,122.61,33.453,123.151,33.663,123.653z"/>
	
		<polygon fill="#D0D9DD" stroke="#171533" stroke-width="3" stroke-linecap="round" stroke-linejoin="round" stroke-miterlimit="10" points="
		52.738,168.478 49.392,175.615 44.884,169.146 	"/>
	
		<polygon fill="#3C439B" stroke="#171533" stroke-width="3" stroke-linecap="round" stroke-linejoin="round" stroke-miterlimit="10" points="
		50.483,172.949 49.366,175.326 47.865,173.174 	"/>
	
		<rect x="43.521" y="137.099" transform="matrix(-0.9964 0.0849 -0.0849 -0.9964 107.7359 301.3893)" fill="#56BD84" stroke="#171533" stroke-width="3" stroke-linecap="round" stroke-linejoin="round" stroke-miterlimit="10" width="7.883" height="31.77"/>
</g>
<g>
	
		<path fill="#F05177" stroke="#171533" stroke-width="3" stroke-linecap="round" stroke-linejoin="round" stroke-miterlimit="10" d="
		M140.987,45.384c11.18-7.26,14.357-22.21,7.097-33.39c-7.26-11.18-22.21-14.357-33.39-7.097L46.758,49.016
		c-0.577,0.374-1.01,0.876-1.324,1.437l-0.016-0.009l-14.46,25.981l0.001,0.002c-1.884,3.458-1.861,7.813,0.434,11.348
		c2.295,3.536,6.265,5.327,10.191,5.012v0.002l29.617-2.643l-0.002-0.019c0.64-0.058,1.276-0.25,1.851-0.624L140.987,45.384z"/>
	
		<path fill="#3C439B" stroke="#171533" stroke-width="3" stroke-linecap="round" stroke-linejoin="round" stroke-miterlimit="10" d="
		M76.139,87.497L67.783,74.63c-1.23-1.894-3.764-2.433-5.659-1.203l-0.229,0.148c-2.18,1.416-5.093,0.797-6.509-1.383
		c-1.415-2.18-0.796-5.093,1.384-6.508l0.229-0.149c1.896-1.23,2.434-3.764,1.204-5.66L49.846,47.01l-3.087,2.006
		c-0.577,0.374-1.01,0.876-1.324,1.437l-0.016-0.009l-14.46,25.981l0.001,0.002c-1.884,3.458-1.861,7.813,0.434,11.348
		c2.295,3.536,6.265,5.327,10.191,5.012v0.002l29.617-2.643l-0.002-0.019c0.64-0.058,1.276-0.25,1.851-0.624L76.139,87.497z"/>
	
		<circle fill="#3C439B" stroke="#171533" stroke-width="3" stroke-linecap="round" stroke-linejoin="round" stroke-miterlimit="10" cx="40.862" cy="81.625" r="4.705"/>
	
		<polyline fill="none" stroke="#171533" stroke-width="3" stroke-linecap="round" stroke-linejoin="round" stroke-miterlimit="10" points="
		104.399,11.582 102.655,19.788 66.229,43.443 58.023,41.699 	"/>
	
		<polyline fill="none" stroke="#171533" stroke-width="3" stroke-linecap="round" stroke-linejoin="round" stroke-miterlimit="10" points="
		130.692,52.069 122.487,50.325 86.061,73.981 84.316,82.187 	"/>
</g>
<g>
	
		<circle fill="#3C439B" stroke="#171533" stroke-width="3" stroke-linecap="round" stroke-linejoin="round" stroke-miterlimit="10" cx="127.841" cy="25.141" r="12.273"/>
	
		<circle fill="#3C439B" stroke="#171533" stroke-width="3" stroke-linecap="round" stroke-linejoin="round" stroke-miterlimit="10" cx="187.474" cy="25.883" r="12.273"/>
	
		<path fill="#3C439B" stroke="#171533" stroke-width="3" stroke-linecap="round" stroke-linejoin="round" stroke-miterlimit="10" d="
		M127.755,29.845l59.634,0.743c2.598,0.048,4.742-2.02,4.789-4.618c0.047-2.599-2.02-4.743-4.619-4.791l-59.632-0.743
		c-2.6-0.046-4.742,2.02-4.789,4.618C123.09,27.653,125.158,29.797,127.755,29.845z"/>
</g>
</svg>
