<?xml version="1.0" encoding="iso-8859-1"?>
<!-- Generator: Adobe Illustrator 16.0.0, SVG Export Plug-In . SVG Version: 6.00 Build 0)  -->
<!DOCTYPE svg PUBLIC "-//W3C//DTD SVG 1.1//EN" "http://www.w3.org/Graphics/SVG/1.1/DTD/svg11.dtd">
<svg xmlns="http://www.w3.org/2000/svg" xmlns:xlink="http://www.w3.org/1999/xlink" version="1.1" id="Capa_1" x="0px" y="0px" width="512px" height="512px" viewBox="0 0 511.626 511.627" style="enable-background:new 0 0 511.626 511.627;" xml:space="preserve">
<g>
	<path d="M503.639,336.899c-5.328-5.328-11.8-7.994-19.417-7.994h-27.405v-54.819c0-9.896-3.617-18.466-10.848-25.695   c-7.231-7.236-15.804-10.852-25.7-10.852H274.091v-54.818h27.404c7.618,0,14.089-2.664,19.417-7.994   c5.329-5.327,7.991-11.798,7.991-19.414v-91.36c0-7.614-2.662-14.087-7.991-19.414c-5.328-5.33-11.799-7.993-19.417-7.993h-91.361   c-7.614,0-14.084,2.663-19.414,7.993c-5.33,5.327-7.992,11.799-7.992,19.414v91.36c0,7.616,2.662,14.084,7.992,19.414   c5.327,5.33,11.8,7.994,19.414,7.994h27.408v54.818H91.363c-9.898,0-18.462,3.619-25.697,10.852   c-7.233,7.229-10.848,15.799-10.848,25.695v54.819H27.406c-7.611,0-14.084,2.666-19.414,7.994C2.663,342.229,0,348.696,0,356.313   v91.358c0,7.617,2.663,14.089,7.992,19.417c5.33,5.328,11.803,7.991,19.414,7.991h91.365c7.611,0,14.084-2.666,19.414-7.991   c5.33-5.328,7.992-11.8,7.992-19.417v-91.358c0-7.617-2.662-14.085-7.992-19.414c-5.33-5.328-11.803-7.994-19.414-7.994H91.36   v-54.819h146.179v54.819h-27.408c-7.614,0-14.084,2.666-19.414,7.994c-5.33,5.329-7.992,11.797-7.992,19.414v91.358   c0,7.617,2.662,14.089,7.992,19.417c5.327,5.328,11.8,7.991,19.414,7.991h91.361c7.618,0,14.086-2.666,19.418-7.991   c5.325-5.332,7.994-11.8,7.994-19.417v-91.358c0-7.617-2.662-14.085-7.994-19.414c-5.332-5.328-11.8-7.994-19.418-7.994h-27.404   v-54.819h146.182v54.819h-27.412c-7.61,0-14.086,2.666-19.417,7.994c-5.325,5.329-7.987,11.797-7.987,19.414v91.358   c0,7.617,2.662,14.089,7.987,19.417c5.331,5.328,11.807,7.991,19.417,7.991h91.365c7.61,0,14.082-2.666,19.41-7.991   c5.332-5.328,7.994-11.8,7.994-19.417v-91.358C511.626,348.696,508.964,342.229,503.639,336.899z" fill="#d1d9df"/>
</g>
<g>
</g>
<g>
</g>
<g>
</g>
<g>
</g>
<g>
</g>
<g>
</g>
<g>
</g>
<g>
</g>
<g>
</g>
<g>
</g>
<g>
</g>
<g>
</g>
<g>
</g>
<g>
</g>
<g>
</g>
</svg>
